…
### 1.5 Check for completeness and correctness across datasets.

``` r
anti_join(bakers_c, bakes_c)
```

    ## Joining with `by = join_by(baker_first_name, series)`

    ## # A tibble: 26 × 6
    ##    baker_first_name last_name       series baker_age baker_occupation   hometown
    ##    <chr>            <chr>            <dbl>     <dbl> <chr>              <chr>   
    ##  1 Alice            Fevronia            10        28 Geography teacher  Essex   
    ##  2 Amelia           LeBruin             10        24 Fashion designer   Halifax 
    ##  3 Antony           Amourdoux            9        30 Banker             London  
    ##  4 Briony           Williams             9        33 Full-time parent   Bristol 
    ##  5 Dan              Beasley-Harling      9        36 Full-time parent   London  
    ##  6 Dan              Chambers            10        32 Support worker     Rotherh…
    ##  7 David            Atherton            10        36 International hea… Whitby  
    ##  8 Helena           Garcia              10        40 Online project ma… Leeds   
    ##  9 Henry            Bird                10        20 Student            Durham  
    ## 10 Imelda           McCarron             9        33 Countryside recre… County …
    ## # ℹ 16 more rows
…
    ## Joining with `by = join_by(baker_first_name, series)`

    ## # A tibble: 1 × 6
    ##   baker_first_name last_name series baker_age baker_occupation hometown    
    ##   <chr>            <chr>      <dbl>     <dbl> <chr>            <chr>       
    ## 1 Jo               Wheatley       2        41 Housewife        Ongar, Essex

``` r
anti_join(results_c, bakes_c)
```

    ## Joining with `by = join_by(series, episode, baker_first_name)`

    ## # A tibble: 596 × 5
    ##    series episode baker_first_name technical result
    ##     <dbl>   <dbl> <chr>                <dbl> <chr> 
    ##  1      1       2 Lea                     NA <NA>  
    ##  2      1       2 Mark                    NA <NA>  
    ##  3      1       3 Annetha                 NA <NA>  
    ##  4      1       3 Lea                     NA <NA>  
    ##  5      1       3 Louise                  NA <NA>  
    ##  6      1       3 Mark                    NA <NA>  
    ##  7      1       4 Annetha                 NA <NA>  
    ##  8      1       4 Jonathan                NA <NA>  
    ##  9      1       4 Lea                     NA <NA>  
    ## 10      1       4 Louise                  NA <NA>  
    ## # ℹ 586 more rows
…
